EDLD 610 Final Presentation:
…
# Tidying the Dataset

Step 1: Import the data.

```r
df <- import(here::here("data", "dataSPSS.sav"), setclass = "tibble") %>%
  janitor::clean_names() %>%
  characterize()
```

--

```
## # A tibble: 2,002 x 70
##    respid sample comp  int_date lang  cregion state density usr   qs1  
##     <dbl> <chr>  <chr>    <dbl> <chr> <chr>   <chr> <chr>   <chr> <chr>
##  1      1 Landl… Comp…   180103 Engl… Northe… PA    Highest U     <NA> 
##  2      2 Landl… Comp…   180103 Engl… South   SC    <NA>    S     <NA> 
##  3      3 Landl… Comp…   180103 Engl… Northe… NJ    Highest S     <NA> 
##  4      4 Landl… Comp…   180103 Engl… South   MD    <NA>    S     <NA> 
##  5      5 Landl… Comp…   180103 Engl… Northe… NH    <NA>    R     <NA> 
##  6      6 Landl… Comp…   180103 Engl… South   NC    <NA>    U     <NA> 
##  7      7 Landl… Comp…   180103 Engl… South   FL    Highest U     <NA> 
##  8      8 Landl… Comp…   180103 Engl… Northe… NJ    Highest S     <NA> 
##  9      9 Landl… Comp…   180103 Engl… South   VA    Lowest  R     <NA> 
## 10     11 Landl… Comp…   180103 Engl… South   WV    <NA>    R     <NA> 
## # ... with 1,992 more rows, and 60 more variables: sex <chr>,
## #   eminuse <chr>, intmob <chr>, intfreq <chr>, home4nw <chr>,
## #   bbhome1 <chr>, bbhome2 <chr>, device1a <chr>, smart2 <chr>,
## #   snsint2 <chr>, device1b <chr>, device1c <chr>, device1d <chr>,
## #   web1a <chr>, web1b <chr>, web1c <chr>, web1d <chr>, web1e <chr>,
## #   web1f <chr>, web1g <chr>, web1h <chr>, sns2a <chr>, sns2b <chr>,
## #   sns2c <chr>, sns2d <chr>, sns2e <chr>, pial5a <chr>, pial5b <chr>,
## #   pial5c <chr>, pial5d <chr>, pial11 <chr>, pial11a <chr>,
## #   pial11ao <chr>, pial11_igbm <chr>, pial12 <chr>, books1 <chr>,
## #   books2a <chr>, books2b <chr>, books2c <chr>, age <chr>, marital <chr>,
## #   educ2 <chr>, emplnw <chr>, hisp <chr>, racem1 <chr>, racem2 <chr>,
## #   racem3 <chr>, racem4 <chr>, racecmb <chr>, birth_hisp <chr>,
## #   inc <chr>, party <chr>, partyln <chr>, hh1 <chr>, hh3 <chr>,
## #   ql1 <chr>, ql1a <chr>, qc1 <chr>, weight <dbl>, cellweight <dbl>
```

---

# Tidying the Dataset

.pull-left[

```
## # A tibble: 2,002 x 2
##      age books1
##    <dbl>  <dbl>
##  1    33      1
##  2    76      5
##  3    99      0
##  4    60      2
##  5    55      6
##  6    58     18
##  7    99      3
##  8    72      2
##  9    58      3
## 10    68     97
## # ... with 1,992 more rows
```
]

--

.pull-right[

```
## # A tibble: 2,002 x 2
##    age           books1    
##    <chr>         <chr>     
##  1 <NA>          <NA>      
##  2 <NA>          <NA>      
##  3 (VOL) Refused <NA>      
##  4 <NA>          <NA>      
##  5 <NA>          <NA>      
##  6 <NA>          <NA>      
##  7 (VOL) Refused <NA>      
##  8 <NA>          <NA>      
##  9 <NA>          <NA>      
## 10 <NA>          97 or more
## # ... with 1,992 more rows
```
…
Equally functional and far less bulky. 

```r
df %<>%
  mutate_at(vars(-age, -books1), characterize)
```

---

# Tidying the Dataset

.pull-left[

```
## # A tibble: 2,002 x 1
##      age
##    <dbl>
##  1    33
##  2    76
##  3    99
##  4    60
##  5    55
##  6    58
##  7    99
##  8    72
##  9    58
## 10    68
## # ... with 1,992 more rows
```
]

.pull-right[

```
## # A tibble: 2,002 x 1
##      age
##    <dbl>
##  1    33
##  2    76
##  3    NA
##  4    60
##  5    55
##  6    58
##  7    NA
##  8    72
##  9    58
## 10    68
## # ... with 1,992 more rows
```
…
---

# Tidying the Dataset

Step 3: Tidy!

```r
df %<>%
  gather(key = "websites", value = "value", starts_with("sns"), starts_with("web"))
```
--

```
## # A tibble: 17,290 x 2
##    websites value              
##    <chr>    <chr>              
##  1 sns2a    <NA>               
##  2 sns2a    <NA>               
##  3 sns2a    <NA>               
##  4 sns2a    <NA>               
##  5 sns2a    About once a day   
##  6 sns2a    <NA>               
##  7 sns2a    <NA>               
##  8 sns2a    <NA>               
##  9 sns2a    Several times a day
## 10 sns2a    <NA>               
## # ... with 17,280 more rows
```
---

# Tidying the Dataset

```r
df %<>%
  separate(websites, into = c("temp", "website"), sep = "[[:digit:]]") 
```
--

```
## # A tibble: 17,290 x 3
##    temp  website value              
##    <chr> <chr>   <chr>              
##  1 sns   a       <NA>               
##  2 sns   a       <NA>               
##  3 sns   a       <NA>               
##  4 sns   a       <NA>               
##  5 sns   a       About once a day   
##  6 sns   a       <NA>               
##  7 sns   a       <NA>               
##  8 sns   a       <NA>               
##  9 sns   a       Several times a day
## 10 sns   a       <NA>               
## # ... with 17,280 more rows
```

---

# Tidying the Dataset

```r
df %<>%
  spread(key = "temp", value = "value")
```

--

```
## # A tibble: 8,645 x 3
##    website sns                 web               
##    <chr>   <chr>               <chr>             
##  1 a       <NA>                No, do not do this
##  2 a       <NA>                No, do not do this
##  3 a       <NA>                No, do not do this
##  4 a       <NA>                No, do not do this
##  5 a       About once a day    Yes, do this      
##  6 a       <NA>                No, do not do this
##  7 a       <NA>                No, do not do this
##  8 a       <NA>                No, do not do this
##  9 a       Several times a day Yes, do this      
## 10 a       <NA>                No, do not do this
## # ... with 8,635 more rows
```
---

# Tidying the Dataset

```r
df[which(df[, "web"] == "No, do not do this"), "sns"] <- "Rarely if ever"

df %<>%
  select(-web)
```

--

```
## # A tibble: 8,645 x 2
##    website sns                
##    <chr>   <chr>              
##  1 a       Rarely if ever     
##  2 a       Rarely if ever     
##  3 a       Rarely if ever     
##  4 a       Rarely if ever     
##  5 a       About once a day   
##  6 a       Rarely if ever     
##  7 a       Rarely if ever     
##  8 a       Rarely if ever     
##  9 a       Several times a day
## 10 a       Rarely if ever     
## # ... with 8,635 more rows
```
…
```r
df %<>%
  mutate(sns = recode(sns, a = "Twitter",
                           b = "Instagram",
                           c = "Facebook",
                           d = "Snapchat",
                           e = "YouTube"))
```

---
# Tidying the Dataset

```
## # A tibble: 8,645 x 2
##    sns     sns_freq_use       
##    <fct>   <fct>              
##  1 Twitter Rarely if ever     
##  2 Twitter Rarely if ever     
##  3 Twitter Rarely if ever     
##  4 Twitter Rarely if ever     
##  5 Twitter About once a day   
##  6 Twitter Rarely if ever     
##  7 Twitter Rarely if ever     
##  8 Twitter Rarely if ever     
##  9 Twitter Several times a day
## 10 Twitter Rarely if ever     
## # ... with 8,635 more rows
```
…
